{
    "Version": "2012-10-17",
    "Statement": [
        {
            "Action": [
                "dynamodb:DescribeLimits",
                "dynamodb:DescribeTimeToLive",
                "dynamodb:ListTagsOfResource",
                "dynamodb:DescribeReservedCapacityOfferings",
                "dynamodb:DescribeReservedCapacity",
                "dynamodb:ListTables",
                "dynamodb:BatchGetItem",
                "dynamodb:BatchWriteItem",
                "dynamodb:CreateTable",
                "dynamodb:DeleteItem",
                "dynamodb:GetItem",
                "dynamodb:GetRecords",
                "dynamodb:PutItem",
                "dynamodb:Query",
                "dynamodb:UpdateItem",
                "dynamodb:Scan",
                "dynamodb:DescribeTable"
            ],
            "Effect": "Allow",
            "Resource": [
                "${dynamodb_arn}"
            ]
        },
        {
            "Action": [
                "kms:Encrypt",
                "kms:Decrypt",
                "kms:DescribeKey"
            ],
            "Effect": "Allow",
            "Resource": [
                "${kms_key_arn}"
            ]
        }
    ]
}